<?xml version="1.0" standalone="no"?>
<!DOCTYPE svg PUBLIC "-//W3C//DTD SVG 20010904//EN"
 "http://www.w3.org/TR/2001/REC-SVG-20010904/DTD/svg10.dtd">
<svg version="1.0" xmlns="http://www.w3.org/2000/svg"
 width="260.000000pt" height="260.000000pt" viewBox="0 0 260.000000 260.000000"
 preserveAspectRatio="xMidYMid meet">
<metadata>
Created by potrace 1.11, written by Peter Selinger 2001-2013
</metadata>
<g transform="translate(0.000000,260.000000) scale(0.100000,-0.100000)"
fill="#000000" stroke="none">
<path d="M1620 2474 c-128 -27 -250 -80 -401 -174 -44 -28 -114 -68 -157 -90
-42 -22 -74 -40 -71 -40 15 0 184 72 287 124 179 90 320 119 552 111 159 -5
183 -8 283 -30 136 -31 268 -87 415 -176 35 -22 66 -39 68 -39 3 0 4 30 2 67
l-3 66 -75 38 c-125 62 -326 121 -490 144 -95 14 -344 13 -410 -1z"/>
<path d="M557 2243 c56 -99 106 -174 111 -169 4 5 -45 91 -99 173 l-21 33 36
-15 c50 -21 97 -48 182 -106 41 -27 74 -46 74 -41 0 16 -96 100 -141 123 -42
21 -130 49 -157 49 -8 0 -3 -16 15 -47z"/>
<path d="M602 1970 c-7 -11 -64 -123 -127 -248 -63 -125 -135 -265 -161 -312
-104 -193 -224 -433 -219 -438 6 -7 -17 -39 184 257 260 382 296 459 337 724
6 42 4 45 -14 17z"/>
<path d="M1210 1826 c0 -3 15 -27 34 -53 64 -91 70 -110 71 -213 0 -84 -3
-101 -27 -146 -71 -135 -209 -211 -408 -226 l-35 -3 48 -17 c33 -12 71 -16
122 -14 132 5 248 81 315 207 30 56 34 73 36 156 3 81 0 100 -21 148 -28 65
-67 118 -106 146 -16 11 -29 18 -29 15z"/>
<path d="M1495 1511 c17 -5 68 -17 115 -26 209 -41 389 -169 521 -369 61 -92
71 -98 42 -24 -46 119 -165 252 -293 328 -104 62 -197 90 -315 95 -69 3 -91 2
-70 -4z"/>
<path d="M1375 1161 c-198 -50 -302 -224 -250 -417 54 -198 266 -371 629 -513
160 -62 354 -105 577 -127 l60 -6 -24 54 c-14 29 -40 87 -60 128 -19 41 -58
124 -86 184 -28 60 -53 107 -55 105 -8 -10 -96 -213 -93 -216 2 -1 21 30 41
70 21 39 42 76 46 80 5 6 160 -348 160 -367 0 -3 -17 -4 -37 -2 -21 3 -65 7
-98 11 -85 9 -195 32 -305 66 -100 30 -338 143 -428 203 -30 20 -57 36 -62 36
-5 0 -10 4 -12 8 -1 4 -18 18 -36 31 -48 34 -138 150 -168 217 -20 46 -27 76
-27 134 -3 199 122 286 348 243 227 -43 437 -155 795 -424 137 -103 284 -199
303 -199 4 0 7 6 7 13 0 7 -19 22 -42 34 -56 27 -183 122 -338 251 -69 58
-127 108 -130 111 -10 13 -138 110 -195 149 -90 60 -195 110 -277 131 -77 19
-192 25 -243 12z"/>
<path d="M802 1125 c-57 -26 -203 -121 -214 -139 -25 -39 85 11 215 97 104 70
104 91 -1 42z"/>
<path d="M555 913 c-9 -52 -29 -81 -84 -126 -75 -61 -143 -90 -194 -83 -39 6
-46 12 -87 72 -53 78 -77 101 -65 64 9 -32 62 -130 81 -151 37 -42 169 -48
241 -11 81 42 133 120 133 202 0 62 -15 83 -25 33z"/>
<path d="M2055 329 c-4 -6 -5 -12 -2 -15 2 -3 7 2 10 11 7 17 1 20 -8 4z"/>
</g>
</svg>
