<?xml version="1.0" encoding="UTF-8"?>
<svg width="17px" height="17px" viewBox="0 0 17 17" version="1.1" xmlns="http://www.w3.org/2000/svg" xmlns:xlink="http://www.w3.org/1999/xlink">
    <!-- Generator: Sketch 46.2 (44496) - http://www.bohemiancoding.com/sketch -->
    <title>arrow_right</title>
    <desc>Created with Sketch.</desc>
    <defs></defs>
    <g id="Page-1" stroke="none" stroke-width="1" fill="none" fill-rule="evenodd">
        <g id="arrow_right" transform="translate(1.000000, 1.000000)" stroke="#191935" fill-rule="nonzero">
            <path d="M9.01008448,15 C8.94315242,15 8.87622037,14.97 8.82988279,14.916 C8.7269104,14.796 8.7269104,14.604 8.82988279,14.49 L14.8228761,7.5 L8.82988279,0.516 C8.7269104,0.396 8.7269104,0.204 8.82988279,0.09 C8.92770657,-0.03 9.0924624,-0.03 9.19028617,0.09 L15.3686298,7.29 C15.4716022,7.404 15.4716022,7.596 15.3686298,7.716 L9.19028617,14.916 C9.14394859,14.97 9.07701654,15 9.01008448,15" id="Fill-5690"></path>
            <path d="M15.1884281,7.8 L0.257430985,7.8 C0.113269633,7.8 0,7.668 0,7.5 C0,7.3374 0.113269633,7.2 0.257430985,7.2 L15.1884281,7.2 C15.3325895,7.2 15.4458591,7.3374 15.4458591,7.5 C15.4458591,7.668 15.3325895,7.8 15.1884281,7.8" id="Fill-5691"></path>
        </g>
    </g>
</svg>